{"paging":{"Sentences":{"finder":"all","page":1,"current":10,"count":432,"perPage":10,"start":1,"end":10,"prevPage":false,"nextPage":true,"pageCount":44,"sort":"relevance","direction":false,"limit":null,"sortDefault":false,"directionDefault":false,"scope":null,"completeSort":[]}},"results":[{"id":3506562,"text":"\u96e3\u3057\u3044\u308f\u3002","lang":"jpn","correctness":0,"script":null,"license":"CC BY 2.0 FR","translations":[[{"id":2249260,"text":"It's so hard.","lang":"eng","correctness":0,"script":null,"transcriptions":[],"audios":[{"id":115440,"author":"CK","attribution_url":null,"license":null}],"isDirect":true,"lang_name":"anglais","dir":"ltr","lang_tag":"en"}],[]],"transcriptions":[{"id":1547599,"sentence_id":3506562,"script":"Hrkt","text":"[\u96e3|\u3080\u305a\u304b]\u3057\u3044\u308f\u3002","user_id":81071,"needsReview":false,"modified":"2019-12-21T22:30:05+00:00","user":{"username":"Yorwba"},"readonly":false,"type":"altscript","html":"<ruby>\u96e3<rp>\uff08<\/rp><rt>\u3080\u305a\u304b<\/rt><rp>\uff09<\/rp><\/ruby>\u3057\u3044\u308f\u3002","markup":null,"info_message":"Les furiganas ont \u00e9t\u00e9 \u00e9dit\u00e9s pour la derni\u00e8re fois par Yorwba, le 21 d\u00e9cembre 2019 \u00e0 22:30:05 UTC."}],"audios":[],"user":{"username":"arnab"},"lang_name":"japonais","dir":"ltr","lang_tag":"ja","is_favorite":null,"is_owned_by_current_user":false,"permissions":null,"max_visible_translations":5,"current_user_review":null},{"id":83293,"text":"\u52c9\u5f37\u306f\u96e3\u3057\u3044\u306e\uff1f","lang":"jpn","correctness":0,"script":null,"license":"CC BY 2.0 FR","translations":[[{"id":320423,"text":"Is the school work hard?","lang":"eng","correctness":0,"script":null,"transcriptions":[],"audios":[{"id":994531,"author":"CK","attribution_url":null,"license":null}],"isDirect":true,"lang_name":"anglais","dir":"ltr","lang_tag":"en"}],[]],"transcriptions":[{"id":2206793,"sentence_id":83293,"script":"Hrkt","text":"[\u52c9\u5f37|\u3079\u3093|\u304d\u3087\u3046]\u306f[\u96e3|\u3080\u305a\u304b]\u3057\u3044\u306e\uff1f","user_id":100651,"needsReview":false,"modified":"2023-09-07T07:27:08+00:00","user":{"username":"KK_kaku_"},"readonly":false,"type":"altscript","html":"<ruby>\u52c9<rp>\uff08<\/rp><rt>\u3079\u3093<\/rt><rp>\uff09<\/rp><\/ruby><ruby>\u5f37<rp>\uff08<\/rp><rt>\u304d\u3087\u3046<\/rt><rp>\uff09<\/rp><\/ruby>\u306f<ruby>\u96e3<rp>\uff08<\/rp><rt>\u3080\u305a\u304b<\/rt><rp>\uff09<\/rp><\/ruby>\u3057\u3044\u306e\uff1f","markup":null,"info_message":"Les furiganas ont \u00e9t\u00e9 \u00e9dit\u00e9s pour la derni\u00e8re fois par KK_kaku_, le 7 septembre 2023 \u00e0 07:27:08 UTC."}],"audios":[],"user":{"username":"KK_kaku_"},"lang_name":"japonais","dir":"ltr","lang_tag":"ja","is_favorite":null,"is_owned_by_current_user":false,"permissions":null,"max_visible_translations":5,"current_user_review":null},{"id":108562,"text":"\u5f7c\u306f\u6c17\u96e3\u3057\u3044\u3002","lang":"jpn","correctness":0,"script":null,"license":"CC BY 2.0 FR","translations":[[{"id":295084,"text":"He is hard to please.","lang":"eng","correctness":0,"script":null,"transcriptions":[],"audios":[],"isDirect":true,"lang_name":"anglais","dir":"ltr","lang_tag":"en"}],[{"id":1646641,"text":"He's hard to please.","lang":"eng","correctness":0,"script":null,"transcriptions":[],"audios":[],"lang_name":"anglais","dir":"ltr","lang_tag":"en"}]],"transcriptions":[{"id":1712191,"sentence_id":108562,"script":"Hrkt","text":"[\u5f7c|\u304b\u308c]\u306f[\u6c17\u96e3|\u304d|\u3080\u305a\u304b]\u3057\u3044\u3002","user_id":null,"needsReview":true,"modified":"2020-02-11T06:49:35+00:00","user":null,"readonly":false,"type":"altscript","html":"<ruby>\u5f7c<rp>\uff08<\/rp><rt>\u304b\u308c<\/rt><rp>\uff09<\/rp><\/ruby>\u306f<ruby>\u6c17<rp>\uff08<\/rp><rt>\u304d<\/rt><rp>\uff09<\/rp><\/ruby><ruby>\u96e3<rp>\uff08<\/rp><rt>\u3080\u305a\u304b<\/rt><rp>\uff09<\/rp><\/ruby>\u3057\u3044\u3002","markup":null,"info_message":"Cette \u00e9criture alternative a \u00e9t\u00e9 g\u00e9n\u00e9r\u00e9e automatiquement et n'a pas \u00e9t\u00e9 v\u00e9rifi\u00e9e."}],"audios":[],"user":{"username":"bunbuku"},"lang_name":"japonais","dir":"ltr","lang_tag":"ja","is_favorite":null,"is_owned_by_current_user":false,"permissions":null,"max_visible_translations":5,"current_user_review":null},{"id":179958,"text":"\u7981\u7159\u306f\u96e3\u3057\u3044\u3002","lang":"jpn","correctness":0,"script":null,"license":"CC BY 2.0 FR","translations":[[{"id":18817,"text":"It is difficult to give up smoking.","lang":"eng","correctness":0,"script":null,"transcriptions":[],"audios":[{"id":1203585,"author":"CK","attribution_url":null,"license":null}],"isDirect":true,"lang_name":"anglais","dir":"ltr","lang_tag":"en"}],[]],"transcriptions":[{"id":649110,"sentence_id":179958,"script":"Hrkt","text":"[\u7981\u7159|\u304d\u3093|\u3048\u3093]\u306f[\u96e3|\u3080\u305a\u304b]\u3057\u3044\u3002","user_id":67461,"needsReview":false,"modified":"2016-02-06T13:26:51+00:00","user":{"username":"wat"},"readonly":false,"type":"altscript","html":"<ruby>\u7981<rp>\uff08<\/rp><rt>\u304d\u3093<\/rt><rp>\uff09<\/rp><\/ruby><ruby>\u7159<rp>\uff08<\/rp><rt>\u3048\u3093<\/rt><rp>\uff09<\/rp><\/ruby>\u306f<ruby>\u96e3<rp>\uff08<\/rp><rt>\u3080\u305a\u304b<\/rt><rp>\uff09<\/rp><\/ruby>\u3057\u3044\u3002","markup":null,"info_message":"Les furiganas ont \u00e9t\u00e9 \u00e9dit\u00e9s pour la derni\u00e8re fois par wat, le 6 f\u00e9vrier 2016 \u00e0 13:26:51 UTC."}],"audios":[],"user":{"username":"wat"},"lang_name":"japonais","dir":"ltr","lang_tag":"ja","is_favorite":null,"is_owned_by_current_user":false,"permissions":null,"max_visible_translations":5,"current_user_review":null},{"id":123195,"text":"\u96e3\u3057\u3044\u72b6\u6cc1\u3067\u3059\u3002","lang":"jpn","correctness":0,"script":null,"license":"CC BY 2.0 FR","translations":[[{"id":280804,"text":"This is a difficult situation.","lang":"eng","correctness":0,"script":null,"transcriptions":[],"audios":[{"id":887259,"author":"CK","attribution_url":null,"license":null}],"isDirect":true,"lang_name":"anglais","dir":"ltr","lang_tag":"en"}],[]],"transcriptions":[{"id":1726259,"sentence_id":123195,"script":"Hrkt","text":"[\u96e3|\u3080\u305a\u304b]\u3057\u3044[\u72b6\u6cc1|\u3058\u3087\u3046|\u304d\u3087\u3046]\u3067\u3059\u3002","user_id":100651,"needsReview":false,"modified":"2022-12-30T16:58:45+00:00","user":{"username":"KK_kaku_"},"readonly":false,"type":"altscript","html":"<ruby>\u96e3<rp>\uff08<\/rp><rt>\u3080\u305a\u304b<\/rt><rp>\uff09<\/rp><\/ruby>\u3057\u3044<ruby>\u72b6<rp>\uff08<\/rp><rt>\u3058\u3087\u3046<\/rt><rp>\uff09<\/rp><\/ruby><ruby>\u6cc1<rp>\uff08<\/rp><rt>\u304d\u3087\u3046<\/rt><rp>\uff09<\/rp><\/ruby>\u3067\u3059\u3002","markup":null,"info_message":"Les furiganas ont \u00e9t\u00e9 \u00e9dit\u00e9s pour la derni\u00e8re fois par KK_kaku_, le 30 d\u00e9cembre 2022 \u00e0 16:58:45 UTC."}],"audios":[],"user":{"username":"KK_kaku_"},"lang_name":"japonais","dir":"ltr","lang_tag":"ja","is_favorite":null,"is_owned_by_current_user":false,"permissions":null,"max_visible_translations":5,"current_user_review":null},{"id":9431904,"text":"\u30c1\u30a7\u30b9\u306f\u96e3\u3057\u3044\u3002","lang":"jpn","correctness":0,"script":null,"license":"CC BY 2.0 FR","translations":[[{"id":5955959,"text":"Chess is hard.","lang":"eng","correctness":0,"script":null,"transcriptions":[],"audios":[{"id":643473,"author":"CK","attribution_url":null,"license":null}],"isDirect":true,"lang_name":"anglais","dir":"ltr","lang_tag":"en"},{"id":9431906,"text":"Chess is difficult.","lang":"eng","correctness":0,"script":null,"transcriptions":[],"audios":[{"id":801090,"author":"CK","attribution_url":null,"license":null}],"isDirect":true,"lang_name":"anglais","dir":"ltr","lang_tag":"en"}],[]],"transcriptions":[{"id":2127237,"sentence_id":9431904,"script":"Hrkt","text":"\u30c1\u30a7\u30b9\u306f[\u96e3|\u3080\u305a\u304b]\u3057\u3044\u3002","user_id":86121,"needsReview":false,"modified":"2020-12-05T00:39:35+00:00","user":{"username":"small_snow"},"readonly":false,"type":"altscript","html":"\u30c1\u30a7\u30b9\u306f<ruby>\u96e3<rp>\uff08<\/rp><rt>\u3080\u305a\u304b<\/rt><rp>\uff09<\/rp><\/ruby>\u3057\u3044\u3002","markup":null,"info_message":"Les furiganas ont \u00e9t\u00e9 \u00e9dit\u00e9s pour la derni\u00e8re fois par small_snow, le 5 d\u00e9cembre 2020 \u00e0 00:39:35 UTC."}],"audios":[],"user":{"username":"small_snow"},"lang_name":"japonais","dir":"ltr","lang_tag":"ja","is_favorite":null,"is_owned_by_current_user":false,"permissions":null,"max_visible_translations":5,"current_user_review":null},{"id":9943366,"text":"\u8a00\u8a9e\u3063\u3066\u96e3\u3057\u3044\u3002","lang":"jpn","correctness":0,"script":null,"license":"CC BY 2.0 FR","translations":[[{"id":9943364,"text":"Language is difficult.","lang":"eng","correctness":0,"script":null,"transcriptions":[],"audios":[],"isDirect":true,"lang_name":"anglais","dir":"ltr","lang_tag":"en"}],[{"id":9458216,"text":"It's hard to talk.","lang":"eng","correctness":0,"script":null,"transcriptions":[],"audios":[],"lang_name":"anglais","dir":"ltr","lang_tag":"en"},{"id":9458217,"text":"It's hard to speak.","lang":"eng","correctness":0,"script":null,"transcriptions":[],"audios":[],"lang_name":"anglais","dir":"ltr","lang_tag":"en"},{"id":9458219,"text":"Speaking is hard.","lang":"eng","correctness":0,"script":null,"transcriptions":[],"audios":[],"lang_name":"anglais","dir":"ltr","lang_tag":"en"},{"id":9943365,"text":"It's hard to communicate.","lang":"eng","correctness":0,"script":null,"transcriptions":[],"audios":[{"id":842299,"external":null,"sentence_id":9943365,"user":{"username":"CK"},"author":"CK","attribution_url":null,"license":null}],"lang_name":"anglais","dir":"ltr","lang_tag":"en"}]],"transcriptions":[{"id":2137747,"sentence_id":9943366,"script":"Hrkt","text":"[\u8a00\u8a9e|\u3052\u3093|\u3054]\u3063\u3066[\u96e3|\u3080\u305a\u304b]\u3057\u3044\u3002","user_id":86121,"needsReview":false,"modified":"2022-05-09T00:40:20+00:00","user":{"username":"small_snow"},"readonly":false,"type":"altscript","html":"<ruby>\u8a00<rp>\uff08<\/rp><rt>\u3052\u3093<\/rt><rp>\uff09<\/rp><\/ruby><ruby>\u8a9e<rp>\uff08<\/rp><rt>\u3054<\/rt><rp>\uff09<\/rp><\/ruby>\u3063\u3066<ruby>\u96e3<rp>\uff08<\/rp><rt>\u3080\u305a\u304b<\/rt><rp>\uff09<\/rp><\/ruby>\u3057\u3044\u3002","markup":null,"info_message":"Les furiganas ont \u00e9t\u00e9 \u00e9dit\u00e9s pour la derni\u00e8re fois par small_snow, le 9 mai 2022 \u00e0 00:40:20 UTC."}],"audios":[],"user":{"username":"small_snow"},"lang_name":"japonais","dir":"ltr","lang_tag":"ja","is_favorite":null,"is_owned_by_current_user":false,"permissions":null,"max_visible_translations":5,"current_user_review":null},{"id":10386935,"text":"\u305d\u308c\u306f\u96e3\u3057\u3044\u306d\u3002","lang":"jpn","correctness":0,"script":null,"license":"CC BY 2.0 FR","translations":[[{"id":6118518,"text":"That's hard.","lang":"eng","correctness":0,"script":null,"transcriptions":[],"audios":[{"id":338465,"author":"CK","attribution_url":null,"license":null}],"isDirect":true,"lang_name":"anglais","dir":"ltr","lang_tag":"en"},{"id":6118519,"text":"That's difficult.","lang":"eng","correctness":0,"script":null,"transcriptions":[],"audios":[{"id":338466,"author":"CK","attribution_url":null,"license":null}],"isDirect":true,"lang_name":"anglais","dir":"ltr","lang_tag":"en"},{"id":10342617,"text":"That is difficult.","lang":"eng","correctness":0,"script":null,"transcriptions":[],"audios":[],"isDirect":true,"lang_name":"anglais","dir":"ltr","lang_tag":"en"}],[]],"transcriptions":[{"id":2159289,"sentence_id":10386935,"script":"Hrkt","text":"\u305d\u308c\u306f[\u96e3|\u3080\u305a\u304b]\u3057\u3044\u306d\u3002","user_id":86121,"needsReview":false,"modified":"2021-10-22T23:45:25+00:00","user":{"username":"small_snow"},"readonly":false,"type":"altscript","html":"\u305d\u308c\u306f<ruby>\u96e3<rp>\uff08<\/rp><rt>\u3080\u305a\u304b<\/rt><rp>\uff09<\/rp><\/ruby>\u3057\u3044\u306d\u3002","markup":null,"info_message":"Les furiganas ont \u00e9t\u00e9 \u00e9dit\u00e9s pour la derni\u00e8re fois par small_snow, le 22 octobre 2021 \u00e0 23:45:25 UTC."}],"audios":[],"user":{"username":"small_snow"},"lang_name":"japonais","dir":"ltr","lang_tag":"ja","is_favorite":null,"is_owned_by_current_user":false,"permissions":null,"max_visible_translations":5,"current_user_review":null},{"id":12423870,"text":"\u96e3\u3057\u3044\u5358\u8a9e\u3067\u3059\u3002","lang":"jpn","correctness":0,"script":null,"license":"CC BY 2.0 FR","translations":[[{"id":10687003,"text":"It's a difficult word.","lang":"eng","correctness":0,"script":null,"transcriptions":[],"audios":[{"id":1007779,"author":"CK","attribution_url":null,"license":null}],"isDirect":true,"lang_name":"anglais","dir":"ltr","lang_tag":"en"}],[]],"transcriptions":[{"id":2211856,"sentence_id":12423870,"script":"Hrkt","text":"[\u96e3|\u3080\u305a\u304b]\u3057\u3044[\u5358\u8a9e|\u305f\u3093|\u3054]\u3067\u3059\u3002","user_id":86121,"needsReview":false,"modified":"2024-04-28T09:02:53+00:00","user":{"username":"small_snow"},"readonly":false,"type":"altscript","html":"<ruby>\u96e3<rp>\uff08<\/rp><rt>\u3080\u305a\u304b<\/rt><rp>\uff09<\/rp><\/ruby>\u3057\u3044<ruby>\u5358<rp>\uff08<\/rp><rt>\u305f\u3093<\/rt><rp>\uff09<\/rp><\/ruby><ruby>\u8a9e<rp>\uff08<\/rp><rt>\u3054<\/rt><rp>\uff09<\/rp><\/ruby>\u3067\u3059\u3002","markup":null,"info_message":"Les furiganas ont \u00e9t\u00e9 \u00e9dit\u00e9s pour la derni\u00e8re fois par small_snow, le 28 avril 2024 \u00e0 09:02:53 UTC."}],"audios":[],"user":{"username":"small_snow"},"lang_name":"japonais","dir":"ltr","lang_tag":"ja","is_favorite":null,"is_owned_by_current_user":false,"permissions":null,"max_visible_translations":5,"current_user_review":null},{"id":106579,"text":"\u5f7c\u306f\u6c17\u96e3\u3057\u3044\u4eba\u3060\u3002","lang":"jpn","correctness":0,"script":null,"license":"CC BY 2.0 FR","translations":[[{"id":297107,"text":"He's a difficult person to deal with.","lang":"eng","correctness":0,"script":null,"transcriptions":[],"audios":[{"id":21399,"author":"CK","attribution_url":null,"license":null}],"isDirect":true,"lang_name":"anglais","dir":"ltr","lang_tag":"en"}],[]],"transcriptions":[{"id":1710230,"sentence_id":106579,"script":"Hrkt","text":"[\u5f7c|\u304b\u308c]\u306f[\u6c17\u96e3|\u304d|\u3080\u305a\u304b]\u3057\u3044[\u4eba|\u3072\u3068]\u3060\u3002","user_id":null,"needsReview":true,"modified":"2020-02-11T06:49:02+00:00","user":null,"readonly":false,"type":"altscript","html":"<ruby>\u5f7c<rp>\uff08<\/rp><rt>\u304b\u308c<\/rt><rp>\uff09<\/rp><\/ruby>\u306f<ruby>\u6c17<rp>\uff08<\/rp><rt>\u304d<\/rt><rp>\uff09<\/rp><\/ruby><ruby>\u96e3<rp>\uff08<\/rp><rt>\u3080\u305a\u304b<\/rt><rp>\uff09<\/rp><\/ruby>\u3057\u3044<ruby>\u4eba<rp>\uff08<\/rp><rt>\u3072\u3068<\/rt><rp>\uff09<\/rp><\/ruby>\u3060\u3002","markup":null,"info_message":"Cette \u00e9criture alternative a \u00e9t\u00e9 g\u00e9n\u00e9r\u00e9e automatiquement et n'a pas \u00e9t\u00e9 v\u00e9rifi\u00e9e."}],"audios":[],"user":{"username":"bunbuku"},"lang_name":"japonais","dir":"ltr","lang_tag":"ja","is_favorite":null,"is_owned_by_current_user":false,"permissions":null,"max_visible_translations":5,"current_user_review":null}]}