{"paging":{"Sentences":{"finder":"all","page":1,"current":10,"count":166,"perPage":10,"start":1,"end":10,"prevPage":false,"nextPage":true,"pageCount":17,"sort":"relevance","direction":false,"limit":null,"sortDefault":false,"directionDefault":false,"scope":null,"completeSort":[]}},"results":[{"id":890127,"text":"\u4f55\u304b\u98f2\u3080\uff1f","lang":"jpn","correctness":0,"script":null,"license":"CC BY 2.0 FR","translations":[[{"id":27379,"text":"Want a drink?","lang":"eng","correctness":0,"script":null,"transcriptions":[],"audios":[{"id":4857,"author":"CK","attribution_url":null,"license":null}],"isDirect":true,"lang_name":"anglais","dir":"ltr","lang_tag":"en"},{"id":64760,"text":"Do you want something to drink?","lang":"eng","correctness":0,"script":null,"transcriptions":[],"audios":[{"id":10667,"author":"CK","attribution_url":null,"license":null}],"isDirect":true,"lang_name":"anglais","dir":"ltr","lang_tag":"en"},{"id":890574,"text":"Want to drink something?","lang":"eng","correctness":0,"script":null,"transcriptions":[],"audios":[],"isDirect":true,"lang_name":"anglais","dir":"ltr","lang_tag":"en"}],[{"id":1504,"text":"Would you like something to drink?","lang":"eng","correctness":0,"script":null,"transcriptions":[],"audios":[{"id":1004,"external":null,"sentence_id":1504,"user":{"username":"CK"},"author":"CK","attribution_url":null,"license":null}],"lang_name":"anglais","dir":"ltr","lang_tag":"en"},{"id":25196,"text":"Would you like to drink anything?","lang":"eng","correctness":0,"script":null,"transcriptions":[],"audios":[{"id":4475,"external":null,"sentence_id":25196,"user":{"username":"CK"},"author":"CK","attribution_url":null,"license":null}],"lang_name":"anglais","dir":"ltr","lang_tag":"en"},{"id":24714,"text":"What will you have to drink?","lang":"eng","correctness":0,"script":null,"transcriptions":[],"audios":[],"lang_name":"anglais","dir":"ltr","lang_tag":"en"},{"id":24765,"text":"What would you like to drink?","lang":"eng","correctness":0,"script":null,"transcriptions":[],"audios":[{"id":4346,"external":null,"sentence_id":24765,"user":{"username":"CK"},"author":"CK","attribution_url":null,"license":null}],"lang_name":"anglais","dir":"ltr","lang_tag":"en"},{"id":400184,"text":"What do you want to drink?","lang":"eng","correctness":0,"script":null,"transcriptions":[],"audios":[{"id":32070,"external":null,"sentence_id":400184,"user":{"username":"CK"},"author":"CK","attribution_url":null,"license":null}],"lang_name":"anglais","dir":"ltr","lang_tag":"en"},{"id":2644214,"text":"What'll you have to drink?","lang":"eng","correctness":0,"script":null,"transcriptions":[],"audios":[{"id":156479,"external":null,"sentence_id":2644214,"user":{"username":"CK"},"author":"CK","attribution_url":null,"license":null}],"lang_name":"anglais","dir":"ltr","lang_tag":"en"}]],"transcriptions":[{"id":1830791,"sentence_id":890127,"script":"Hrkt","text":"[\u4f55|\u306a\u306b]\u304b[\u98f2|\u306e]\u3080\uff1f","user_id":5495,"needsReview":false,"modified":"2020-11-28T18:40:43+00:00","user":{"username":"bunbuku"},"readonly":false,"type":"altscript","html":"<ruby>\u4f55<rp>\uff08<\/rp><rt>\u306a\u306b<\/rt><rp>\uff09<\/rp><\/ruby>\u304b<ruby>\u98f2<rp>\uff08<\/rp><rt>\u306e<\/rt><rp>\uff09<\/rp><\/ruby>\u3080\uff1f","markup":null,"info_message":"Les furiganas ont \u00e9t\u00e9 \u00e9dit\u00e9s pour la derni\u00e8re fois par bunbuku, le 28 novembre 2020 \u00e0 18:40:43 UTC."}],"audios":[],"user":{"username":"bunbuku"},"lang_name":"japonais","dir":"ltr","lang_tag":"ja","is_favorite":null,"is_owned_by_current_user":false,"permissions":null,"max_visible_translations":5,"current_user_review":null},{"id":2860783,"text":"\u7dd1\u8336\u98f2\u3080\uff1f","lang":"jpn","correctness":0,"script":null,"license":"CC BY 2.0 FR","translations":[[{"id":1768241,"text":"Do you drink green tea?","lang":"eng","correctness":0,"script":null,"transcriptions":[],"audios":[{"id":79072,"author":"CK","attribution_url":null,"license":null}],"isDirect":true,"lang_name":"anglais","dir":"ltr","lang_tag":"en"},{"id":6884432,"text":"Would you like some green tea?","lang":"eng","correctness":0,"script":null,"transcriptions":[],"audios":[],"isDirect":true,"lang_name":"anglais","dir":"ltr","lang_tag":"en"}],[{"id":1867443,"text":"Are you drinking green tea?","lang":"eng","correctness":0,"script":null,"transcriptions":[],"audios":[{"id":82366,"external":null,"sentence_id":1867443,"user":{"username":"CK"},"author":"CK","attribution_url":null,"license":null}],"lang_name":"anglais","dir":"ltr","lang_tag":"en"},{"id":10681840,"text":"Fancy some green tea?","lang":"eng","correctness":0,"script":null,"transcriptions":[],"audios":[],"lang_name":"anglais","dir":"ltr","lang_tag":"en"}]],"transcriptions":[{"id":1849599,"sentence_id":2860783,"script":"Hrkt","text":"[\u7dd1\u8336|\u308a\u3087\u304f|\u3061\u3083][\u98f2|\u306e]\u3080\uff1f","user_id":90700,"needsReview":false,"modified":"2021-07-21T10:15:45+00:00","user":{"username":"Dominika7"},"readonly":false,"type":"altscript","html":"<ruby>\u7dd1<rp>\uff08<\/rp><rt>\u308a\u3087\u304f<\/rt><rp>\uff09<\/rp><\/ruby><ruby>\u8336<rp>\uff08<\/rp><rt>\u3061\u3083<\/rt><rp>\uff09<\/rp><\/ruby><ruby>\u98f2<rp>\uff08<\/rp><rt>\u306e<\/rt><rp>\uff09<\/rp><\/ruby>\u3080\uff1f","markup":null,"info_message":"Les furiganas ont \u00e9t\u00e9 \u00e9dit\u00e9s pour la derni\u00e8re fois par Dominika7, le 21 juillet 2021 \u00e0 10:15:45 UTC."}],"audios":[],"user":{"username":"Nekonari"},"lang_name":"japonais","dir":"ltr","lang_tag":"ja","is_favorite":null,"is_owned_by_current_user":false,"permissions":null,"max_visible_translations":5,"current_user_review":null},{"id":11388430,"text":"\u30d3\u30fc\u30eb\u98f2\u3080\uff1f","lang":"jpn","correctness":0,"script":null,"license":"CC BY 2.0 FR","translations":[[{"id":6350783,"text":"Do you want to drink some beer?","lang":"eng","correctness":0,"script":null,"transcriptions":[],"audios":[{"id":659251,"author":"CK","attribution_url":null,"license":null}],"isDirect":true,"lang_name":"anglais","dir":"ltr","lang_tag":"en"}],[]],"transcriptions":[{"id":2192882,"sentence_id":11388430,"script":"Hrkt","text":"\u30d3\u30fc\u30eb[\u98f2|\u306e]\u3080\uff1f","user_id":5495,"needsReview":false,"modified":"2022-12-29T23:05:35+00:00","user":{"username":"bunbuku"},"readonly":false,"type":"altscript","html":"\u30d3\u30fc\u30eb<ruby>\u98f2<rp>\uff08<\/rp><rt>\u306e<\/rt><rp>\uff09<\/rp><\/ruby>\u3080\uff1f","markup":null,"info_message":"Les furiganas ont \u00e9t\u00e9 \u00e9dit\u00e9s pour la derni\u00e8re fois par bunbuku, le 29 d\u00e9cembre 2022 \u00e0 23:05:35 UTC."}],"audios":[],"user":{"username":"bunbuku"},"lang_name":"japonais","dir":"ltr","lang_tag":"ja","is_favorite":null,"is_owned_by_current_user":false,"permissions":null,"max_visible_translations":5,"current_user_review":null},{"id":1356183,"text":"\u30c1\u30e3\u30a4\u3092\u98f2\u3080\u3002","lang":"jpn","correctness":0,"script":null,"license":"CC BY 2.0 FR","translations":[[{"id":8826857,"text":"I\u2019ll drink chai.","lang":"eng","correctness":0,"script":null,"transcriptions":[],"audios":[{"id":806655,"author":"CK","attribution_url":null,"license":null}],"isDirect":true,"lang_name":"anglais","dir":"ltr","lang_tag":"en"}],[]],"transcriptions":[{"id":1990074,"sentence_id":1356183,"script":"Hrkt","text":"\u30c1\u30e3\u30a4\u3092[\u98f2|\u306e]\u3080\u3002","user_id":86121,"needsReview":false,"modified":"2021-12-14T09:28:05+00:00","user":{"username":"small_snow"},"readonly":false,"type":"altscript","html":"\u30c1\u30e3\u30a4\u3092<ruby>\u98f2<rp>\uff08<\/rp><rt>\u306e<\/rt><rp>\uff09<\/rp><\/ruby>\u3080\u3002","markup":null,"info_message":"Les furiganas ont \u00e9t\u00e9 \u00e9dit\u00e9s pour la derni\u00e8re fois par small_snow, le 14 d\u00e9cembre 2021 \u00e0 09:28:05 UTC."}],"audios":[],"user":{"username":"nonong"},"lang_name":"japonais","dir":"ltr","lang_tag":"ja","is_favorite":null,"is_owned_by_current_user":false,"permissions":null,"max_visible_translations":5,"current_user_review":null},{"id":10630513,"text":"\u30b3\u30fc\u30d2\u30fc\u3001\u98f2\u3080\uff1f","lang":"jpn","correctness":0,"script":null,"license":"CC BY 2.0 FR","translations":[[{"id":449095,"text":"Do you drink coffee?","lang":"eng","correctness":0,"script":null,"transcriptions":[],"audios":[{"id":34615,"author":"CK","attribution_url":null,"license":null}],"isDirect":true,"lang_name":"anglais","dir":"ltr","lang_tag":"en"},{"id":3871291,"text":"Do you want to have some coffee?","lang":"eng","correctness":0,"script":null,"transcriptions":[],"audios":[{"id":238837,"author":"CK","attribution_url":null,"license":null}],"isDirect":true,"lang_name":"anglais","dir":"ltr","lang_tag":"en"}],[{"id":62182,"text":"Have some coffee?","lang":"eng","correctness":0,"script":null,"transcriptions":[],"audios":[],"lang_name":"anglais","dir":"ltr","lang_tag":"en"}]],"transcriptions":[{"id":2167949,"sentence_id":10630513,"script":"Hrkt","text":"\u30b3\u30fc\u30d2\u30fc\u3001[\u98f2|\u306e]\u3080\uff1f","user_id":86121,"needsReview":false,"modified":"2022-01-20T00:20:58+00:00","user":{"username":"small_snow"},"readonly":false,"type":"altscript","html":"\u30b3\u30fc\u30d2\u30fc\u3001<ruby>\u98f2<rp>\uff08<\/rp><rt>\u306e<\/rt><rp>\uff09<\/rp><\/ruby>\u3080\uff1f","markup":null,"info_message":"Les furiganas ont \u00e9t\u00e9 \u00e9dit\u00e9s pour la derni\u00e8re fois par small_snow, le 20 janvier 2022 \u00e0 00:20:58 UTC."}],"audios":[],"user":{"username":"small_snow"},"lang_name":"japonais","dir":"ltr","lang_tag":"ja","is_favorite":null,"is_owned_by_current_user":false,"permissions":null,"max_visible_translations":5,"current_user_review":null},{"id":146169,"text":"\u4e57\u308b\u306a\u3089\u98f2\u3080\u306a\u3002","lang":"jpn","correctness":0,"script":null,"license":"CC BY 2.0 FR","translations":[[{"id":268393,"text":"If you drive, don't drink.","lang":"eng","correctness":0,"script":null,"transcriptions":[],"audios":[],"isDirect":true,"lang_name":"anglais","dir":"ltr","lang_tag":"en"}],[{"id":10056908,"text":"Drink or drive? You have to choose.","lang":"eng","correctness":0,"script":null,"transcriptions":[],"audios":[],"lang_name":"anglais","dir":"ltr","lang_tag":"en"}]],"transcriptions":[{"id":1738442,"sentence_id":146169,"script":"Hrkt","text":"[\u4e57|\u306e]\u308b\u306a\u3089[\u98f2|\u306e]\u3080\u306a\u3002","user_id":100651,"needsReview":false,"modified":"2022-06-25T17:14:49+00:00","user":{"username":"KK_kaku_"},"readonly":false,"type":"altscript","html":"<ruby>\u4e57<rp>\uff08<\/rp><rt>\u306e<\/rt><rp>\uff09<\/rp><\/ruby>\u308b\u306a\u3089<ruby>\u98f2<rp>\uff08<\/rp><rt>\u306e<\/rt><rp>\uff09<\/rp><\/ruby>\u3080\u306a\u3002","markup":null,"info_message":"Les furiganas ont \u00e9t\u00e9 \u00e9dit\u00e9s pour la derni\u00e8re fois par KK_kaku_, le 25 juin 2022 \u00e0 17:14:49 UTC."}],"audios":[],"user":{"username":"KK_kaku_"},"lang_name":"japonais","dir":"ltr","lang_tag":"ja","is_favorite":null,"is_owned_by_current_user":false,"permissions":null,"max_visible_translations":5,"current_user_review":null},{"id":924916,"text":"\u30b3\u30fc\u30d2\u30fc\u3092\u98f2\u3080\u306e\uff1f","lang":"jpn","correctness":0,"script":null,"license":"CC BY 2.0 FR","translations":[[{"id":449095,"text":"Do you drink coffee?","lang":"eng","correctness":0,"script":null,"transcriptions":[],"audios":[{"id":34615,"author":"CK","attribution_url":null,"license":null}],"isDirect":true,"lang_name":"anglais","dir":"ltr","lang_tag":"en"}],[{"id":62182,"text":"Have some coffee?","lang":"eng","correctness":0,"script":null,"transcriptions":[],"audios":[],"lang_name":"anglais","dir":"ltr","lang_tag":"en"},{"id":3871291,"text":"Do you want to have some coffee?","lang":"eng","correctness":0,"script":null,"transcriptions":[],"audios":[{"id":238837,"external":null,"sentence_id":3871291,"user":{"username":"CK"},"author":"CK","attribution_url":null,"license":null}],"lang_name":"anglais","dir":"ltr","lang_tag":"en"}]],"transcriptions":[{"id":1831164,"sentence_id":924916,"script":"Hrkt","text":"\u30b3\u30fc\u30d2\u30fc\u3092[\u98f2|\u306e]\u3080\u306e\uff1f","user_id":86121,"needsReview":false,"modified":"2023-03-25T11:31:05+00:00","user":{"username":"small_snow"},"readonly":false,"type":"altscript","html":"\u30b3\u30fc\u30d2\u30fc\u3092<ruby>\u98f2<rp>\uff08<\/rp><rt>\u306e<\/rt><rp>\uff09<\/rp><\/ruby>\u3080\u306e\uff1f","markup":null,"info_message":"Les furiganas ont \u00e9t\u00e9 \u00e9dit\u00e9s pour la derni\u00e8re fois par small_snow, le 25 mars 2023 \u00e0 11:31:05 UTC."}],"audios":[],"user":{"username":"Covered"},"lang_name":"japonais","dir":"ltr","lang_tag":"ja","is_favorite":null,"is_owned_by_current_user":false,"permissions":null,"max_visible_translations":5,"current_user_review":null},{"id":8764356,"text":"\u4f55\u304b\u98f2\u3080\u3082\u306e\u3042\u308b\uff1f","lang":"jpn","correctness":0,"script":null,"license":"CC BY 2.0 FR","translations":[[{"id":1977241,"text":"Is there anything to drink?","lang":"eng","correctness":0,"script":null,"transcriptions":[],"audios":[{"id":91104,"author":"CK","attribution_url":null,"license":null}],"isDirect":true,"lang_name":"anglais","dir":"ltr","lang_tag":"en"}],[]],"transcriptions":[{"id":2111059,"sentence_id":8764356,"script":"Hrkt","text":"[\u4f55|\u306a\u306b]\u304b[\u98f2|\u306e]\u3080\u3082\u306e\u3042\u308b\uff1f","user_id":100651,"needsReview":false,"modified":"2023-10-07T00:27:22+00:00","user":{"username":"KK_kaku_"},"readonly":false,"type":"altscript","html":"<ruby>\u4f55<rp>\uff08<\/rp><rt>\u306a\u306b<\/rt><rp>\uff09<\/rp><\/ruby>\u304b<ruby>\u98f2<rp>\uff08<\/rp><rt>\u306e<\/rt><rp>\uff09<\/rp><\/ruby>\u3080\u3082\u306e\u3042\u308b\uff1f","markup":null,"info_message":"Les furiganas ont \u00e9t\u00e9 \u00e9dit\u00e9s pour la derni\u00e8re fois par KK_kaku_, le 7 octobre 2023 \u00e0 00:27:22 UTC."}],"audios":[],"user":{"username":"bunbuku"},"lang_name":"japonais","dir":"ltr","lang_tag":"ja","is_favorite":null,"is_owned_by_current_user":false,"permissions":null,"max_visible_translations":5,"current_user_review":null},{"id":10134474,"text":"\u7dd1\u8336\u3063\u3066\u3088\u304f\u98f2\u3080\uff1f","lang":"jpn","correctness":0,"script":null,"license":"CC BY 2.0 FR","translations":[[{"id":9752403,"text":"Do you drink green tea often?","lang":"eng","correctness":0,"script":null,"transcriptions":[],"audios":[{"id":876844,"author":"CK","attribution_url":null,"license":null}],"isDirect":true,"lang_name":"anglais","dir":"ltr","lang_tag":"en"}],[]],"transcriptions":[{"id":2149009,"sentence_id":10134474,"script":"Hrkt","text":"[\u7dd1\u8336|\u308a\u3087\u304f|\u3061\u3083]\u3063\u3066\u3088\u304f[\u98f2|\u306e]\u3080\uff1f","user_id":86121,"needsReview":false,"modified":"2021-06-29T06:24:42+00:00","user":{"username":"small_snow"},"readonly":false,"type":"altscript","html":"<ruby>\u7dd1<rp>\uff08<\/rp><rt>\u308a\u3087\u304f<\/rt><rp>\uff09<\/rp><\/ruby><ruby>\u8336<rp>\uff08<\/rp><rt>\u3061\u3083<\/rt><rp>\uff09<\/rp><\/ruby>\u3063\u3066\u3088\u304f<ruby>\u98f2<rp>\uff08<\/rp><rt>\u306e<\/rt><rp>\uff09<\/rp><\/ruby>\u3080\uff1f","markup":null,"info_message":"Les furiganas ont \u00e9t\u00e9 \u00e9dit\u00e9s pour la derni\u00e8re fois par small_snow, le 29 juin 2021 \u00e0 06:24:42 UTC."}],"audios":[],"user":{"username":"small_snow"},"lang_name":"japonais","dir":"ltr","lang_tag":"ja","is_favorite":null,"is_owned_by_current_user":false,"permissions":null,"max_visible_translations":5,"current_user_review":null},{"id":11345666,"text":"\u725b\u4e73\u306f\u3088\u304f\u98f2\u3080\u306e\uff1f","lang":"jpn","correctness":0,"script":null,"license":"CC BY 2.0 FR","translations":[[{"id":6907755,"text":"Do you often drink milk?","lang":"eng","correctness":0,"script":null,"transcriptions":[],"audios":[{"id":519948,"author":"CK","attribution_url":null,"license":null}],"isDirect":true,"lang_name":"anglais","dir":"ltr","lang_tag":"en"}],[]],"transcriptions":[{"id":2192195,"sentence_id":11345666,"script":"Hrkt","text":"[\u725b\u4e73|\u304e\u3085\u3046|\u306b\u3085\u3046]\u306f\u3088\u304f[\u98f2|\u306e]\u3080\u306e\uff1f","user_id":5495,"needsReview":false,"modified":"2022-12-18T18:19:47+00:00","user":{"username":"bunbuku"},"readonly":false,"type":"altscript","html":"<ruby>\u725b<rp>\uff08<\/rp><rt>\u304e\u3085\u3046<\/rt><rp>\uff09<\/rp><\/ruby><ruby>\u4e73<rp>\uff08<\/rp><rt>\u306b\u3085\u3046<\/rt><rp>\uff09<\/rp><\/ruby>\u306f\u3088\u304f<ruby>\u98f2<rp>\uff08<\/rp><rt>\u306e<\/rt><rp>\uff09<\/rp><\/ruby>\u3080\u306e\uff1f","markup":null,"info_message":"Les furiganas ont \u00e9t\u00e9 \u00e9dit\u00e9s pour la derni\u00e8re fois par bunbuku, le 18 d\u00e9cembre 2022 \u00e0 18:19:47 UTC."}],"audios":[],"user":{"username":"bunbuku"},"lang_name":"japonais","dir":"ltr","lang_tag":"ja","is_favorite":null,"is_owned_by_current_user":false,"permissions":null,"max_visible_translations":5,"current_user_review":null}]}