{"paging":{"Sentences":{"finder":"all","page":1,"current":10,"count":360,"perPage":10,"start":1,"end":10,"prevPage":false,"nextPage":true,"pageCount":36,"sort":"relevance","direction":false,"limit":null,"sortDefault":false,"directionDefault":false,"scope":null,"completeSort":[]}},"results":[{"id":1485500,"text":"\u96fb\u8eca\u304c\u6765\u308b\u3088\uff01","lang":"jpn","correctness":0,"script":null,"license":"CC BY 2.0 FR","translations":[[{"id":4876334,"text":"The train is coming!","lang":"eng","correctness":0,"script":null,"transcriptions":[],"audios":[],"isDirect":true,"lang_name":"anglais","dir":"ltr","lang_tag":"en"}],[{"id":1518447,"text":"The train is coming.","lang":"eng","correctness":0,"script":null,"transcriptions":[],"audios":[{"id":73898,"external":null,"sentence_id":1518447,"user":{"username":"CK"},"author":"CK","attribution_url":null,"license":null}],"lang_name":"anglais","dir":"ltr","lang_tag":"en"}]],"transcriptions":[{"id":1838612,"sentence_id":1485500,"script":"Hrkt","text":"[\u96fb\u8eca|\u3067\u3093|\u3057\u3083]\u304c[\u6765|\u304f]\u308b\u3088\uff01","user_id":86121,"needsReview":false,"modified":"2021-05-02T00:52:02+00:00","user":{"username":"small_snow"},"readonly":false,"type":"altscript","html":"<ruby>\u96fb<rp>\uff08<\/rp><rt>\u3067\u3093<\/rt><rp>\uff09<\/rp><\/ruby><ruby>\u8eca<rp>\uff08<\/rp><rt>\u3057\u3083<\/rt><rp>\uff09<\/rp><\/ruby>\u304c<ruby>\u6765<rp>\uff08<\/rp><rt>\u304f<\/rt><rp>\uff09<\/rp><\/ruby>\u308b\u3088\uff01","markup":null,"info_message":"Les furiganas ont \u00e9t\u00e9 \u00e9dit\u00e9s pour la derni\u00e8re fois par small_snow, le 2 mai 2021 \u00e0 00:52:02 UTC."}],"audios":[],"user":{"username":"marshmallowcat"},"lang_name":"japonais","dir":"ltr","lang_tag":"ja","is_favorite":null,"is_owned_by_current_user":false,"permissions":null,"max_visible_translations":5,"current_user_review":null},{"id":9032518,"text":"\u96fb\u8eca\u6765\u305f\u3088\u3002","lang":"jpn","correctness":0,"script":null,"license":"CC BY 2.0 FR","translations":[[{"id":33133,"text":"Here comes the train.","lang":"eng","correctness":0,"script":null,"transcriptions":[],"audios":[{"id":5815,"author":"CK","attribution_url":null,"license":null}],"isDirect":true,"lang_name":"anglais","dir":"ltr","lang_tag":"en"},{"id":72148,"text":"Here comes the train!","lang":"eng","correctness":0,"script":null,"transcriptions":[],"audios":[{"id":943868,"author":"CK","attribution_url":null,"license":null}],"isDirect":true,"lang_name":"anglais","dir":"ltr","lang_tag":"en"}],[]],"transcriptions":[{"id":2119998,"sentence_id":9032518,"script":"Hrkt","text":"[\u96fb\u8eca|\u3067\u3093|\u3057\u3083][\u6765|\u304d]\u305f\u3088\u3002","user_id":null,"needsReview":true,"modified":"2020-09-12T00:14:45+00:00","user":null,"readonly":false,"type":"altscript","html":"<ruby>\u96fb<rp>\uff08<\/rp><rt>\u3067\u3093<\/rt><rp>\uff09<\/rp><\/ruby><ruby>\u8eca<rp>\uff08<\/rp><rt>\u3057\u3083<\/rt><rp>\uff09<\/rp><\/ruby><ruby>\u6765<rp>\uff08<\/rp><rt>\u304d<\/rt><rp>\uff09<\/rp><\/ruby>\u305f\u3088\u3002","markup":null,"info_message":"This alternative script was generated automatically and has not been reviewed."}],"audios":[],"user":{"username":"bunbuku"},"lang_name":"japonais","dir":"ltr","lang_tag":"ja","is_favorite":null,"is_owned_by_current_user":false,"permissions":null,"max_visible_translations":5,"current_user_review":null},{"id":124815,"text":"\u96fb\u8eca\u3067\u884c\u3053\u3046\u3002","lang":"jpn","correctness":0,"script":null,"license":"CC BY 2.0 FR","translations":[[{"id":279178,"text":"Let's take a train.","lang":"eng","correctness":0,"script":null,"transcriptions":[],"audios":[{"id":19401,"author":"CK","attribution_url":null,"license":null}],"isDirect":true,"lang_name":"anglais","dir":"ltr","lang_tag":"en"},{"id":2706680,"text":"Let's go by train.","lang":"eng","correctness":0,"script":null,"transcriptions":[],"audios":[{"id":163108,"author":"CK","attribution_url":null,"license":null}],"isDirect":true,"lang_name":"anglais","dir":"ltr","lang_tag":"en"}],[{"id":10044936,"text":"We should go by train.","lang":"eng","correctness":0,"script":null,"transcriptions":[],"audios":[{"id":853819,"external":null,"sentence_id":10044936,"user":{"username":"CK"},"author":"CK","attribution_url":null,"license":null}],"lang_name":"anglais","dir":"ltr","lang_tag":"en"}]],"transcriptions":[{"id":1727847,"sentence_id":124815,"script":"Hrkt","text":"[\u96fb\u8eca|\u3067\u3093|\u3057\u3083]\u3067[\u884c|\u3044]\u3053\u3046\u3002","user_id":86121,"needsReview":false,"modified":"2020-12-11T07:57:18+00:00","user":{"username":"small_snow"},"readonly":false,"type":"altscript","html":"<ruby>\u96fb<rp>\uff08<\/rp><rt>\u3067\u3093<\/rt><rp>\uff09<\/rp><\/ruby><ruby>\u8eca<rp>\uff08<\/rp><rt>\u3057\u3083<\/rt><rp>\uff09<\/rp><\/ruby>\u3067<ruby>\u884c<rp>\uff08<\/rp><rt>\u3044<\/rt><rp>\uff09<\/rp><\/ruby>\u3053\u3046\u3002","markup":null,"info_message":"Les furiganas ont \u00e9t\u00e9 \u00e9dit\u00e9s pour la derni\u00e8re fois par small_snow, le 11 d\u00e9cembre 2020 \u00e0 07:57:18 UTC."}],"audios":[],"user":{"username":"tommy_san"},"lang_name":"japonais","dir":"ltr","lang_tag":"ja","is_favorite":null,"is_owned_by_current_user":false,"permissions":null,"max_visible_translations":5,"current_user_review":null},{"id":3561140,"text":"\u96fb\u8eca\u9593\u306b\u5408\u3063\u305f\uff1f","lang":"jpn","correctness":0,"script":null,"license":"CC BY 2.0 FR","translations":[[{"id":329299,"text":"Did you catch the train?!","lang":"eng","correctness":0,"script":null,"transcriptions":[],"audios":[{"id":1194425,"author":"CK","attribution_url":null,"license":null}],"isDirect":true,"lang_name":"anglais","dir":"ltr","lang_tag":"en"},{"id":2891068,"text":"Did you make the train?","lang":"eng","correctness":0,"script":null,"transcriptions":[],"audios":[{"id":169919,"author":"CK","attribution_url":null,"license":null}],"isDirect":true,"lang_name":"anglais","dir":"ltr","lang_tag":"en"},{"id":4704197,"text":"Did you catch the train?","lang":"eng","correctness":0,"script":null,"transcriptions":[],"audios":[{"id":268861,"author":"CK","attribution_url":null,"license":null}],"isDirect":true,"lang_name":"anglais","dir":"ltr","lang_tag":"en"}],[]],"transcriptions":[{"id":1854523,"sentence_id":3561140,"script":"Hrkt","text":"[\u96fb\u8eca|\u3067\u3093|\u3057\u3083][\u9593|\u307e]\u306b[\u5408|\u3042]\u3063\u305f\uff1f","user_id":100651,"needsReview":false,"modified":"2022-06-24T05:16:58+00:00","user":{"username":"KK_kaku_"},"readonly":false,"type":"altscript","html":"<ruby>\u96fb<rp>\uff08<\/rp><rt>\u3067\u3093<\/rt><rp>\uff09<\/rp><\/ruby><ruby>\u8eca<rp>\uff08<\/rp><rt>\u3057\u3083<\/rt><rp>\uff09<\/rp><\/ruby><ruby>\u9593<rp>\uff08<\/rp><rt>\u307e<\/rt><rp>\uff09<\/rp><\/ruby>\u306b<ruby>\u5408<rp>\uff08<\/rp><rt>\u3042<\/rt><rp>\uff09<\/rp><\/ruby>\u3063\u305f\uff1f","markup":null,"info_message":"Les furiganas ont \u00e9t\u00e9 \u00e9dit\u00e9s pour la derni\u00e8re fois par KK_kaku_, le 24 juin 2022 \u00e0 05:16:58 UTC."}],"audios":[],"user":{"username":"tommy_san"},"lang_name":"japonais","dir":"ltr","lang_tag":"ja","is_favorite":null,"is_owned_by_current_user":false,"permissions":null,"max_visible_translations":5,"current_user_review":null},{"id":7453564,"text":"\u96fb\u8eca\u304c\u597d\u304d\u3060\u3002","lang":"jpn","correctness":0,"script":null,"license":"CC BY 2.0 FR","translations":[[{"id":1012609,"text":"I like trains.","lang":"eng","correctness":0,"script":null,"transcriptions":[],"audios":[{"id":50804,"author":"CK","attribution_url":null,"license":null}],"isDirect":true,"lang_name":"anglais","dir":"ltr","lang_tag":"en"},{"id":5840417,"text":"I love trains.","lang":"eng","correctness":0,"script":null,"transcriptions":[],"audios":[{"id":305454,"author":"CK","attribution_url":null,"license":null}],"isDirect":true,"lang_name":"anglais","dir":"ltr","lang_tag":"en"}],[]],"transcriptions":[{"id":1859427,"sentence_id":7453564,"script":"Hrkt","text":"[\u96fb\u8eca|\u3067\u3093|\u3057\u3083]\u304c[\u597d|\u3059]\u304d\u3060\u3002","user_id":null,"needsReview":true,"modified":"2020-02-11T07:32:43+00:00","user":null,"readonly":false,"type":"altscript","html":"<ruby>\u96fb<rp>\uff08<\/rp><rt>\u3067\u3093<\/rt><rp>\uff09<\/rp><\/ruby><ruby>\u8eca<rp>\uff08<\/rp><rt>\u3057\u3083<\/rt><rp>\uff09<\/rp><\/ruby>\u304c<ruby>\u597d<rp>\uff08<\/rp><rt>\u3059<\/rt><rp>\uff09<\/rp><\/ruby>\u304d\u3060\u3002","markup":null,"info_message":"This alternative script was generated automatically and has not been reviewed."}],"audios":[],"user":{"username":"Kitsuneko"},"lang_name":"japonais","dir":"ltr","lang_tag":"ja","is_favorite":null,"is_owned_by_current_user":false,"permissions":null,"max_visible_translations":5,"current_user_review":null},{"id":8720081,"text":"\u96fb\u8eca\u306b\u4e57\u3063\u3066\u305f\uff1f","lang":"jpn","correctness":0,"script":null,"license":"CC BY 2.0 FR","translations":[[{"id":4501255,"text":"Were you on the train?","lang":"eng","correctness":0,"script":null,"transcriptions":[],"audios":[{"id":259339,"author":"CK","attribution_url":null,"license":null}],"isDirect":true,"lang_name":"anglais","dir":"ltr","lang_tag":"en"}],[]],"transcriptions":[{"id":1988955,"sentence_id":8720081,"script":"Hrkt","text":"[\u96fb\u8eca|\u3067\u3093|\u3057\u3083]\u306b[\u4e57|\u306e]\u3063\u3066\u305f\uff1f","user_id":86121,"needsReview":false,"modified":"2020-04-27T14:12:36+00:00","user":{"username":"small_snow"},"readonly":false,"type":"altscript","html":"<ruby>\u96fb<rp>\uff08<\/rp><rt>\u3067\u3093<\/rt><rp>\uff09<\/rp><\/ruby><ruby>\u8eca<rp>\uff08<\/rp><rt>\u3057\u3083<\/rt><rp>\uff09<\/rp><\/ruby>\u306b<ruby>\u4e57<rp>\uff08<\/rp><rt>\u306e<\/rt><rp>\uff09<\/rp><\/ruby>\u3063\u3066\u305f\uff1f","markup":null,"info_message":"Les furiganas ont \u00e9t\u00e9 \u00e9dit\u00e9s pour la derni\u00e8re fois par small_snow, le 27 avril 2020 \u00e0 14:12:36 UTC."}],"audios":[],"user":{"username":"small_snow"},"lang_name":"japonais","dir":"ltr","lang_tag":"ja","is_favorite":null,"is_owned_by_current_user":false,"permissions":null,"max_visible_translations":5,"current_user_review":null},{"id":8739887,"text":"\u96fb\u8eca\u306f\u6df7\u3093\u3067\u305f\uff1f","lang":"jpn","correctness":0,"script":null,"license":"CC BY 2.0 FR","translations":[[{"id":6918936,"text":"Was the train crowded?","lang":"eng","correctness":0,"script":null,"transcriptions":[],"audios":[{"id":595756,"author":"CK","attribution_url":null,"license":null}],"isDirect":true,"lang_name":"anglais","dir":"ltr","lang_tag":"en"}],[]],"transcriptions":[{"id":1990000,"sentence_id":8739887,"script":"Hrkt","text":"[\u96fb\u8eca|\u3067\u3093|\u3057\u3083]\u306f[\u6df7|\u3053]\u3093\u3067\u305f\uff1f","user_id":81071,"needsReview":false,"modified":"2021-07-25T19:52:39+00:00","user":{"username":"Yorwba"},"readonly":false,"type":"altscript","html":"<ruby>\u96fb<rp>\uff08<\/rp><rt>\u3067\u3093<\/rt><rp>\uff09<\/rp><\/ruby><ruby>\u8eca<rp>\uff08<\/rp><rt>\u3057\u3083<\/rt><rp>\uff09<\/rp><\/ruby>\u306f<ruby>\u6df7<rp>\uff08<\/rp><rt>\u3053<\/rt><rp>\uff09<\/rp><\/ruby>\u3093\u3067\u305f\uff1f","markup":null,"info_message":"Les furiganas ont \u00e9t\u00e9 \u00e9dit\u00e9s pour la derni\u00e8re fois par Yorwba, le 25 juillet 2021 \u00e0 19:52:39 UTC."}],"audios":[],"user":{"username":"bunbuku"},"lang_name":"japonais","dir":"ltr","lang_tag":"ja","is_favorite":null,"is_owned_by_current_user":false,"permissions":null,"max_visible_translations":5,"current_user_review":null},{"id":11138220,"text":"\u96fb\u8eca\u901a\u52e4\u3067\u3059\u3002","lang":"jpn","correctness":0,"script":null,"license":"CC BY 2.0 FR","translations":[[{"id":4487318,"text":"Every day, I take the train to work.","lang":"eng","correctness":0,"script":null,"transcriptions":[],"audios":[],"isDirect":true,"lang_name":"anglais","dir":"ltr","lang_tag":"en"}],[]],"transcriptions":[{"id":2186161,"sentence_id":11138220,"script":"Hrkt","text":"[\u96fb\u8eca|\u3067\u3093|\u3057\u3083][\u901a\u52e4|\u3064\u3046|\u304d\u3093]\u3067\u3059\u3002","user_id":86121,"needsReview":false,"modified":"2022-10-02T07:21:08+00:00","user":{"username":"small_snow"},"readonly":false,"type":"altscript","html":"<ruby>\u96fb<rp>\uff08<\/rp><rt>\u3067\u3093<\/rt><rp>\uff09<\/rp><\/ruby><ruby>\u8eca<rp>\uff08<\/rp><rt>\u3057\u3083<\/rt><rp>\uff09<\/rp><\/ruby><ruby>\u901a<rp>\uff08<\/rp><rt>\u3064\u3046<\/rt><rp>\uff09<\/rp><\/ruby><ruby>\u52e4<rp>\uff08<\/rp><rt>\u304d\u3093<\/rt><rp>\uff09<\/rp><\/ruby>\u3067\u3059\u3002","markup":null,"info_message":"Les furiganas ont \u00e9t\u00e9 \u00e9dit\u00e9s pour la derni\u00e8re fois par small_snow, le 2 octobre 2022 \u00e0 07:21:08 UTC."}],"audios":[],"user":{"username":"small_snow"},"lang_name":"japonais","dir":"ltr","lang_tag":"ja","is_favorite":null,"is_owned_by_current_user":false,"permissions":null,"max_visible_translations":5,"current_user_review":null},{"id":10099887,"text":"\u65e9\u304f\uff01\u96fb\u8eca\u6765\u3066\u308b\u3088\uff01","lang":"jpn","correctness":0,"script":null,"license":"CC BY 2.0 FR","translations":[[{"id":5749810,"text":"Hurry up! The train is here!","lang":"eng","correctness":0,"script":null,"transcriptions":[],"audios":[],"isDirect":true,"lang_name":"anglais","dir":"ltr","lang_tag":"en"}],[]],"transcriptions":[{"id":2148139,"sentence_id":10099887,"script":"Hrkt","text":"[\u65e9|\u306f\u3084]\u304f\uff01[\u96fb\u8eca|\u3067\u3093|\u3057\u3083][\u6765|\u304d]\u3066\u308b\u3088\uff01","user_id":5495,"needsReview":false,"modified":"2021-06-12T02:44:02+00:00","user":{"username":"bunbuku"},"readonly":false,"type":"altscript","html":"<ruby>\u65e9<rp>\uff08<\/rp><rt>\u306f\u3084<\/rt><rp>\uff09<\/rp><\/ruby>\u304f\uff01<ruby>\u96fb<rp>\uff08<\/rp><rt>\u3067\u3093<\/rt><rp>\uff09<\/rp><\/ruby><ruby>\u8eca<rp>\uff08<\/rp><rt>\u3057\u3083<\/rt><rp>\uff09<\/rp><\/ruby><ruby>\u6765<rp>\uff08<\/rp><rt>\u304d<\/rt><rp>\uff09<\/rp><\/ruby>\u3066\u308b\u3088\uff01","markup":null,"info_message":"Les furiganas ont \u00e9t\u00e9 \u00e9dit\u00e9s pour la derni\u00e8re fois par bunbuku, le 12 juin 2021 \u00e0 02:44:02 UTC."}],"audios":[],"user":{"username":"bunbuku"},"lang_name":"japonais","dir":"ltr","lang_tag":"ja","is_favorite":null,"is_owned_by_current_user":false,"permissions":null,"max_visible_translations":5,"current_user_review":null},{"id":10588043,"text":"\u96fb\u8eca\u65c5\u304c\u597d\u304d\u3060\u3002","lang":"jpn","correctness":0,"script":null,"license":"CC BY 2.0 FR","translations":[[{"id":11363863,"text":"I like train trips.","lang":"eng","correctness":0,"script":null,"transcriptions":[],"audios":[],"isDirect":true,"lang_name":"anglais","dir":"ltr","lang_tag":"en"}],[]],"transcriptions":[{"id":2165917,"sentence_id":10588043,"script":"Hrkt","text":"[\u96fb\u8eca|\u3067\u3093|\u3057\u3083][\u65c5|\u305f\u3073]\u304c[\u597d|\u3059]\u304d\u3060\u3002","user_id":null,"needsReview":true,"modified":"2021-12-28T08:18:40+00:00","user":null,"readonly":false,"type":"altscript","html":"<ruby>\u96fb<rp>\uff08<\/rp><rt>\u3067\u3093<\/rt><rp>\uff09<\/rp><\/ruby><ruby>\u8eca<rp>\uff08<\/rp><rt>\u3057\u3083<\/rt><rp>\uff09<\/rp><\/ruby><ruby>\u65c5<rp>\uff08<\/rp><rt>\u305f\u3073<\/rt><rp>\uff09<\/rp><\/ruby>\u304c<ruby>\u597d<rp>\uff08<\/rp><rt>\u3059<\/rt><rp>\uff09<\/rp><\/ruby>\u304d\u3060\u3002","markup":null,"info_message":"This alternative script was generated automatically and has not been reviewed."}],"audios":[],"user":{"username":"Sonata"},"lang_name":"japonais","dir":"ltr","lang_tag":"ja","is_favorite":null,"is_owned_by_current_user":false,"permissions":null,"max_visible_translations":5,"current_user_review":null}]}